{
    "Title": "Operation Sovereign Borders",
    "Description": "TODO Operation Sovereign Borders wurde im Jahr 2013 eingeführt. Sie ist der Beweis dafür, dass eine konsequente Rückführung von das einzig effektive Mittel ist um tote zu verhindern. Dies wird auch durch die Zahlen aus dem Jahr 200X belegt.",
    "Article": [
        { "Text": "Blabla .. Operation Sovereign Borders ..." },
        { "Image": "Operation Sovereign Borders.jpg" },
        { "Caption": "Operation Sovereign Borders Australien" },
        { "Text": "Operation Sovereign Borders Blabla ..." },
        { "Image": "Operation Sovereign Borders.jpg" }
    ],
    "Sources": [
        "https://inquisitivebird.substack.com/p/the-effects-of-immigration-in-denmark",
        "https://report24.news/daenemark-zuwanderer-aus-muslimischen-laendern-belasten-die-staatskassen-erheblich/",
        "https://www.economist.com/europe/2021/12/18/why-have-danes-turned-against-immigration",
        "https://heimatkurier.at/demographie/daenemark-das-verlustgeschaeft-mit-der-massenmigration/"
    ]
}