{
    "Title": "MENAPT",
    "Description": "Diese Statistik vergleich die Einzahlungen in das Sozialsystem. Deutlich zu erkennen ist, dass Migranten aus dem MENAPT-Raum (Middle East, Nord Afrika, Pakistan & Türkei) zu keinem Zeitpunkt ein Netto plus für die Sozialkassen erwirtschaften.",
    "Article": [
        { "Text": "Blabla ..." },
        { "Image": "MENAPT.jpg" },
        { "Caption": "MENAPT DE" },
        { "Text": "Blabla ..." },
        { "Image": "MENAPT.jpg" }
    ],
    "Sources": [
        "https://inquisitivebird.substack.com/p/the-effects-of-immigration-in-denmark",
        "https://report24.news/daenemark-zuwanderer-aus-muslimischen-laendern-belasten-die-staatskassen-erheblich/",
        "https://www.economist.com/europe/2021/12/18/why-have-danes-turned-against-immigration",
        "https://heimatkurier.at/demographie/daenemark-das-verlustgeschaeft-mit-der-massenmigration/"
    ]
}